…
## Combine precipitation data for 2018 and 2019, and convert month to character variable

``` r
preci_18_and_19_df <- 
  bind_rows(preci_18_df, preci_19_df) %>%
  mutate(month = month.name[month]) # convert month to character variable

preci_18_and_19_df
```

    ## # A tibble: 24 × 3
    ##    month     total year 
    ##    <chr>     <dbl> <chr>
    ##  1 January    0.94 2018 
    ##  2 February   4.8  2018 
    ##  3 March      2.69 2018 
    ##  4 April      4.69 2018 
    ##  5 May        9.27 2018 
    ##  6 June       4.77 2018 
    ##  7 July      10.2  2018 
    ##  8 August     6.45 2018 
    ##  9 September 10.5  2018 
    ## 10 October    2.12 2018 
    ## # … with 14 more rows
…
``` r
pols <- read_csv("data/p2/pols-month.csv") %>%
  janitor::clean_names() %>%
  separate(mon, into = c("year", "month", "day"), convert = TRUE) %>% # convert the format of date
  mutate(month = month.name[month], # convert month name to string
         president = recode(prez_dem, `1` = "dem", `0` = "gop")) %>% # create president variable and assign value
  select(-day, -prez_dem, -prez_gop) # remove unnecessary columns

pols
```

    ## # A tibble: 822 × 9
    ##     year month     gov_gop sen_gop rep_gop gov_dem sen_dem rep_dem president
    ##    <int> <chr>       <dbl>   <dbl>   <dbl>   <dbl>   <dbl>   <dbl> <chr>    
    ##  1  1947 January        23      51     253      23      45     198 dem      
    ##  2  1947 February       23      51     253      23      45     198 dem      
    ##  3  1947 March          23      51     253      23      45     198 dem      
    ##  4  1947 April          23      51     253      23      45     198 dem      
    ##  5  1947 May            23      51     253      23      45     198 dem      
    ##  6  1947 June           23      51     253      23      45     198 dem      
    ##  7  1947 July           23      51     253      23      45     198 dem      
    ##  8  1947 August         23      51     253      23      45     198 dem      
    ##  9  1947 September      23      51     253      23      45     198 dem      
    ## 10  1947 October        23      51     253      23      45     198 dem      
    ## # … with 812 more rows
…
snp
```

    ## # A tibble: 787 × 3
    ##     year month    close
    ##    <int> <chr>    <dbl>
    ##  1  2015 July     2080.
    ##  2  2015 June     2063.
    ##  3  2015 May      2107.
    ##  4  2015 April    2086.
    ##  5  2015 March    2068.
    ##  6  2015 February 2104.
    ##  7  2015 January  1995.
    ##  8  2014 December 2059.
    ##  9  2014 November 2068.
    ## 10  2014 October  2018.
    ## # … with 777 more rows
…
``` r
unemployment <- read_csv("data/p2/unemployment.csv") %>%
  pivot_longer(
    Jan:Dec,
    names_to = "month",
    values_to = "unemployment_percent"
  ) %>%
  mutate(month = match(month, month.abb),
         month = month.name[month]) %>% # reformat the date
  janitor::clean_names()

unemployment
```

    ## # A tibble: 816 × 3
    ##     year month     unemployment_percent
    ##    <dbl> <chr>                    <dbl>
    ##  1  1948 January                    3.4
    ##  2  1948 February                   3.8
    ##  3  1948 March                      4  
    ##  4  1948 April                      3.9
    ##  5  1948 May                        3.5
    ##  6  1948 June                       3.6
    ##  7  1948 July                       3.6
    ##  8  1948 August                     3.9
    ##  9  1948 September                  3.8
    ## 10  1948 October                    3.7
    ## # … with 806 more rows
## Merge the datasets

-   merge `snp` into `pols` via `left_join()`
-   merge with `unemployment` data

``` r
pols_snp <-
  left_join(pols, snp, by = c("year", "month"))
pols_snp_unemployment <-
  left_join(pols_snp, unemployment, by = c("year", "month"))

pols_snp_unemployment
```

    ## # A tibble: 822 × 11
    ##     year month   gov_gop sen_gop rep_gop gov_dem sen_dem rep_dem president close
    ##    <dbl> <chr>     <dbl>   <dbl>   <dbl>   <dbl>   <dbl>   <dbl> <chr>     <dbl>
    ##  1  1947 January      23      51     253      23      45     198 dem          NA
    ##  2  1947 Februa…      23      51     253      23      45     198 dem          NA
    ##  3  1947 March        23      51     253      23      45     198 dem          NA
    ##  4  1947 April        23      51     253      23      45     198 dem          NA
    ##  5  1947 May          23      51     253      23      45     198 dem          NA
    ##  6  1947 June         23      51     253      23      45     198 dem          NA
    ##  7  1947 July         23      51     253      23      45     198 dem          NA
    ##  8  1947 August       23      51     253      23      45     198 dem          NA
    ##  9  1947 Septem…      23      51     253      23      45     198 dem          NA
    ## 10  1947 October      23      51     253      23      45     198 dem          NA
    ## # … with 812 more rows, and 1 more variable: unemployment_percent <dbl>
…
``` r
baby_name <- read_csv("data/p3/Popular_Baby_Names.csv") %>%
  janitor::clean_names() %>%
  mutate(gender = str_to_upper(gender),
         ethnicity = str_to_upper(ethnicity),
         childs_first_name = str_to_upper(childs_first_name),
         ethnicity = replace(ethnicity, ethnicity == "ASIAN AND PACI", "ASIAN AND PACIFIC ISLANDER"),
         ethnicity = replace(ethnicity, ethnicity == "BLACK NON HISP", "BLACK NON HISPANIC"),
         ethnicity = replace(ethnicity, ethnicity == "WHITE NON HISP", "WHITE NON HISPANIC")) %>% 
  distinct() # remove duplicated rows

baby_name
```

    ## # A tibble: 12,181 × 6
    ##    year_of_birth gender ethnicity                  childs_first_name count  rank
    ##            <dbl> <chr>  <chr>                      <chr>             <dbl> <dbl>
    ##  1          2016 FEMALE ASIAN AND PACIFIC ISLANDER OLIVIA              172     1
    ##  2          2016 FEMALE ASIAN AND PACIFIC ISLANDER CHLOE               112     2
    ##  3          2016 FEMALE ASIAN AND PACIFIC ISLANDER SOPHIA              104     3
    ##  4          2016 FEMALE ASIAN AND PACIFIC ISLANDER EMILY                99     4
    ##  5          2016 FEMALE ASIAN AND PACIFIC ISLANDER EMMA                 99     4
    ##  6          2016 FEMALE ASIAN AND PACIFIC ISLANDER MIA                  79     5
    ##  7          2016 FEMALE ASIAN AND PACIFIC ISLANDER CHARLOTTE            59     6
    ##  8          2016 FEMALE ASIAN AND PACIFIC ISLANDER SARAH                57     7
    ##  9          2016 FEMALE ASIAN AND PACIFIC ISLANDER ISABELLA             56     8
    ## 10          2016 FEMALE ASIAN AND PACIFIC ISLANDER HANNAH               56     8
    ## # … with 12,171 more rows
…
